{
    "Message": {
        "AmountInvalid": "Số tiền giao dịch không hợp lệ.",
        "AmountExceededTransaction": "Số tiền giao dịch không hợp lệ, vượt số tiền giao dịch gốc.",
        "AmountExceededMaximum": "Số tiền giao dịch không hợp lệ, vượt số tiền giao dịch tối đa.",
        "ProviderUnavailable": "Phương thức thanh toán không khả dụng.",
        "ProviderMaintenance": "Phương thức thanh toán đang bảo trì.",
        "TransactionNotExist": "Giao dịch {0} không tồn tại.",
        "TransactionNotSuccess": "Giao dịch {0} không thành công.",
        "TransactionNotSettlement": "Giao dịch {0} chưa quyết toán.",
        "TransactionConflict": "Giao dịch bị xung đột với một giao dịch khác.",
        "TransactionArchive": "Không thể xử lý giao dịch đã vượt quá {0} ngày.",
        "TransactionForbidden": "Không có quyền thực hiện thao tác này.",
        "TransactionVoided": "Giao dịch đã bị huỷ do merchant."
    }
}