{
    "Message": {
        "AmountInvalid": "Invalid amount.",
        "AmountExceededTransaction": "Invalid amount, exceeded transaction amount.",
        "AmountExceededMaximum": "Invalid amount, exceeded maximum transaction amount.",
        "ProviderUnavailable": "Payment method is not available.",
        "ProviderMaintenance": "Payment method is under maintenance.",
        "TransactionNotExist": "Transaction {0} is not exist.",
        "TransactionNotSuccess": "Transaction {0} is not success.",
        "TransactionNotSettlement": "Transaction {0} is not settlement.",
        "TransactionConflict": "Transaction is conflicted with another transaction.",
        "TransactionArchive": "Can not process transaction has passed {0} days.",
        "TransactionForbidden": "Need permission to perform this action.",
        "TransactionVoided": "Transaction has been canceled by merchant."
    }
}